[
  {
    "branch": "3.0",
    "pre_releases": [
      {
        "version": "3.0.0-alpha1",
        "released_at": "2011-07-03 17:16:05"
      },
      {
        "version": "3.0.0-beta",
        "released_at": "2011-09-23 09:29:13",
        "announce": [
          {
            "lang": "fr",
            "url": "https://blog.spip.net/SPIP-1-9-2k-2-0-16-2-1-11-et-3-0-0-beta-disponibles.html"
          }
        ],
        "download": [
          {
            "url": "https://files.spip.net/spip/dev/SPIP-3-beta.zip"
          }
        ]
      },
      {
        "version": "3.0.0-beta2",
        "released_at": "2012-01-03 11:46:17"
      },
      {
        "version": "3.0.0-RC",
        "released_at": "2012-04-07 22:06:31"
      }
    ]
  },
  {
    "branch": "3.1",
    "pre_releases": [
      {
        "version": "3.1.0-alpha",
        "released_at": "2014-11-09 17:10:17"
      },
      {
        "version": "3.1.0-beta",
        "released_at": "2015-06-21 14:42:07",
        "announce": [
          {
            "lang": "fr",
            "url": "https://blog.spip.net/SPIP-joue-a-cache-cache-avec-OpCache.html"
          }
        ],
        "download": [
          {
            "url": "https://files.spip.net/spip/archives/SPIP-vtrois.1.0-beta.zip"
          }
        ]
      },
      {
        "version": "v3.1.0-RC",
        "released_at": "2015-10-31 21:52:41"
      },
      {
        "version": "3.1.0-RC2",
        "released_at": "2015-12-03 21:57:44"
      },
      {
        "version": "3.1.0-RC3",
        "released_at": "2017-03-22 22:33:33",
        "announce": [
          {
            "lang": "fr",
            "url": "https://blog.spip.net/SPIP-3-1-Release-Candidate-3-Mise-a-jour-de-securite.html"
          }
        ],
        "download": [
          {
            "url": "https://files.spip.net/spip/archives/SPIP-vtrois.1.0-rc3.zip"
          }
        ]
      }
    ]
  },
  {
    "branch": "3.2",
    "pre_releases": [
      {
        "version": "3.2.0-alpha1",
        "released_at": "2017-03-22 22:50:42",
        "announce": [
          {
            "lang": "fr",
            "url": "https://blog.spip.net/Chouette-SPIP-3-2-alpha.html"
          }
        ],
        "changelog": "https://contrib.spip.net/SPIP-3-2-alpha-changelogg",
        "download": [
          {
            "url": "https://files.spip.net/spip/archives/SPIP-vtrois.2.0-alpha-1.zip"
          }
        ]
      },
      {
        "version": "3.2.0-beta",
        "released_at": "2017-05-06 01:59:03"
      },
      {
        "version": "3.2.0-beta2",
        "released_at": "2017-06-09 06:51:10",
        "announce": [
          {
            "lang": "fr",
            "url": "https://blog.spip.net/Mise-a-jour-de-maintenance-Sortie-de-SPIP-3-1-5-SPIP-3-0-26-et-SPIP-3-2-beta.html"
          }
        ],
        "download": [
          {
            "url": "https://files.spip.net/spip/archives/SPIP-vtrois.2.0-beta-2.zip"
          }
        ]
      },
      {
        "version": "3.2.0-beta3",
        "released_at": "2017-06-12 08:57:24",
        "announce": [
          {
            "lang": "fr",
            "url": "https://blog.spip.net/Mise-a-jour-CRITIQUE-de-securite-Sortie-de-SPIP-3-1-6-et-SPIP-3-2-Beta-3.html"
          }
        ],
        "download": [
          {
            "url": "https://files.spip.net/spip/archives/SPIP-vtrois.2.0-beta-3.zip"
          }
        ]
      }
    ]
  },
  {
    "branch": "4.0",
    "pre_releases": [
      {
        "version": "4.0.0-alpha",
        "released_at": "2021-05-01 17:32:13",
        "announce": [
          {
            "lang": "fr",
            "url": "https://blog.spip.net/O-mega-c-est-SPIP-4-0-alpha.html"
          }
        ],
        "download": [
          {
            "url": "https://files.spip.net/spip/dev/spip-v4.0.0-alpha.zip",
            "size": 10077659
          }
        ]
      },
      {
        "version": "4.0.0-beta",
        "released_at": "2021-06-01 14:52:47",
        "announce": [
          {
            "lang": "fr",
            "url": "https://blog.spip.net/O-joie-C-est-SPIP-4-0-0-beta.html"
          }
        ],
        "download": [
          {
            "url": "https://files.spip.net/spip/dev/spip-v4.0.0-beta.zip",
            "size": 9387661
          }
        ]
      }
    ]
  },
  {
    "branch": "4.1",
    "pre_releases": [
      {
        "version": "4.1.0-rc",
        "released_at": "2022-03-05 11:52:21",
        "announce": [
          {
            "lang": "fr",
            "url": "https://blog.spip.net/Sortie-de-SPIP-4-1-0-rc.html"
          }
        ],
        "download": [
          {
            "url": "https://files.spip.net/spip/dev/spip-v4.1.0-rc.zip",
            "size": 9453594,
            "sha1": "dca2e7e23c77e3fdc68f04c5bdc45067cbdce374"
          }
        ]
      },
      {
        "version": "4.1.0-beta",
        "released_at": "2022-02-18 00:00:38",
        "announce": [
          {
            "lang": "fr",
            "url": "https://blog.spip.net/Sortie-de-SPIP-4-1-0-beta.html"
          }
        ],
        "download": [
          {
            "url": "https://files.spip.net/spip/dev/spip-v4.1.0-beta.zip",
            "size": 9451839,
            "sha1": "9acfb98abda678d68529fd6db335a6db5b67dc24"
          }
        ]
      },
      {
        "version": "4.1.0-alpha",
        "released_at": "2022-02-08 22:04:06",
        "announce": [
          {
            "lang": "fr",
            "url": "https://blog.spip.net/Sortie-de-SPIP-4-1-0-alpha.html"
          }
        ],
        "download": [
          {
            "url": "https://files.spip.net/spip/dev/spip-v4.1.0-alpha.zip",
            "size": 9449810,
            "sha1": "3470acf2fc76ac8ad4f616ddeb2e9426c8333842"
          }
        ]
      }
    ]
  },
  {
    "branch": "4.2",
    "pre_releases": [
      {
        "version": "4.2.0-alpha2",
        "released_at": "2023-01-28 13:13:58",
        "announce": [
          {
            "lang": "fr",
            "url": "https://blog.spip.net/869"
          }
        ],
        "download": [
          {
            "url": "https://files.spip.net/spip/dev/spip-v4.2.0-alpha2.zip",
            "size": 9911890,
            "sha1": "d5c262c454de7d9a2256c20832c8e67345d7845d"
          }
        ]
      },
      {
        "version": "4.2.0-alpha",
        "released_at": "2023-01-27 16:04:09",
        "announce": [
          {
            "lang": "fr",
            "url": "https://blog.spip.net/869"
          }
        ],
        "download": [
          {
            "url": "https://files.spip.net/spip/dev/spip-v4.2.0-alpha.zip",
            "size": 9911700,
            "sha1": "f233c781f5ebdca955a0e4e88c5ce5624a0c18b2"
          }
        ]
      }
    ]
  }
]
